{ "servers":[
    {
        "server_url": "http://192.168.0.128:32400", 
        "check_ssl": "True",
        "plex_token": "XXXXXXXXXXXXXXXX",
        "local_playlists": "N:\\Multimedia\\Musicbee Library\\Playlists",
        "working_directory": "N:\\Multimedia\\Music\\PPPWD",
        "working_directory_plex": "/nasmount/Music/PPPWD",
        "section_id": "1", //find the section id of the library you want to sync to
        "local_prepend": "N:\\Multimedia\\Music",
        "plex_prepend": "/nasmount/Music",
        "local_convert": false,
        "plex_convert": "w2u",
        "OneWaySync": false
    }  
  ]
}